{"data":[{"id":23,"documentId":"koqvshz6xdwf24bpltekuwwh","name":"Hotel Le Christiania","type":"Hotel","location_type":"On-trail","latitude":45.82,"longitude":6.73,"website":"https://www.lechristiania-hotel.com/en/","phone":"+33450470272","email":null,"price_range":"€80","capacity":null,"altitude":null,"notes":null,"booking_method":"Online Portal","description":null,"booking_difficulty":null,"createdAt":"2025-09-29T15:55:25.046Z","updatedAt":"2025-09-29T15:55:25.046Z","publishedAt":"2025-10-29T08:54:28.382Z"},{"id":21,"documentId":"ka82x9zha98rmfs7v2gw2s8i","name":"Chalet Hotel Gai Soleil","type":"Hotel","location_type":"Near-trail","latitude":45.82,"longitude":6.73,"website":"https://www.gaisoleil.com/","phone":"+33450470294","email":"contact@gaisoleil.com","price_range":"€60-200","capacity":38,"altitude":null,"notes":null,"booking_method":null,"description":null,"booking_difficulty":null,"createdAt":"2025-09-29T15:51:16.708Z","updatedAt":"2025-09-29T15:56:01.177Z","publishedAt":"2025-10-29T08:54:28.382Z"},{"id":28,"documentId":"tob3atjqu2tf3u1r0i57ipkq","name":"Chalet Hôtel La Chemenaz","type":"Hotel","location_type":"On-trail","latitude":45.81,"longitude":6.73,"website":"https://www.chemenaz.com/en","phone":"+33450470244","email":"info@chemenaz.com","price_range":"€190-320","capacity":40,"altitude":1156,"notes":null,"booking_method":"Online Portal","description":null,"booking_difficulty":null,"createdAt":"2025-09-29T16:00:51.375Z","updatedAt":"2025-09-29T16:00:51.375Z","publishedAt":"2025-10-29T08:54:28.382Z"},{"id":30,"documentId":"ahc4fh0h68sqreg4o8z04aa0","name":"Chalet des Contamines","type":"Refuge","location_type":"On-trail","latitude":45.82,"longitude":6.72,"website":"https://chaletdescontamines.ffcam.fr/home.html","phone":"+33450470088","email":null,"price_range":"€60","capacity":20,"altitude":null,"notes":null,"booking_method":"Online Portal","description":null,"booking_difficulty":null,"createdAt":"2025-09-29T16:09:21.439Z","updatedAt":"2025-09-29T16:09:34.572Z","publishedAt":"2025-10-29T08:54:28.382Z"},{"id":33,"documentId":"s7uprzsx81baui8o1j0qjxcc","name":"Camping Le Pontet","type":"Campsite","location_type":"On-trail","latitude":45.8,"longitude":6.72,"website":"https://www.campinglepontet.fr/","phone":"+33(0)4 50 47 04 04","email":null,"price_range":"€5-20","capacity":140,"altitude":null,"notes":null,"booking_method":"Online Portal","description":null,"booking_difficulty":"Easy","createdAt":"2025-09-29T16:16:39.144Z","updatedAt":"2025-09-29T16:16:39.144Z","publishedAt":"2025-10-29T08:54:28.382Z"},{"id":35,"documentId":"vjyfilmyjloupldhw7f53tf3","name":"Gîte Le Pontet","type":"Refuge","location_type":"On-trail","latitude":45.8,"longitude":6.72,"website":"https://www.campinglepontet.fr/","phone":"+33(0)4 50 47 04 04","email":null,"price_range":"€50","capacity":37,"altitude":null,"notes":null,"booking_method":"Online Portal","description":null,"booking_difficulty":"Easy","createdAt":"2025-09-29T16:18:06.181Z","updatedAt":"2025-09-29T16:21:14.966Z","publishedAt":"2025-10-29T08:54:28.382Z"},{"id":45,"documentId":"w4os0fsdvxivitujkodwxrcn","name":"Bivouac des Chapieux","type":"Campsite","location_type":"On-trail","latitude":45.7,"longitude":6.75,"website":null,"phone":null,"email":null,"price_range":"Free","capacity":null,"altitude":null,"notes":null,"booking_method":null,"description":null,"booking_difficulty":null,"createdAt":"2025-09-29T16:30:07.156Z","updatedAt":"2025-10-02T18:25:49.861Z","publishedAt":"2025-10-29T08:54:28.382Z"},{"id":40,"documentId":"vl1822h5321i60pxy45kzeqv","name":"Refuge La Balme","type":"Refuge","location_type":"On-trail","latitude":45.76,"longitude":6.71,"website":"https://www.refugedelabalme.com/","phone":"+334 50 47 03 54","email":"refuge-labalme@outlook.fr","price_range":null,"capacity":39,"altitude":1706,"notes":null,"booking_method":"Online Portal","description":null,"booking_difficulty":null,"createdAt":"2025-09-29T16:25:04.243Z","updatedAt":"2025-10-03T08:57:03.525Z","publishedAt":"2025-10-29T08:54:28.382Z"},{"id":39,"documentId":"oyaqnpgdvvwmsdttdgm37ngz","name":"Refuge de Nant Borrant","type":"Refuge","location_type":"On-trail","latitude":45.78,"longitude":6.72,"website":"https://www.refugenantborrant.com/","phone":"04 50 47 03 57","email":"refugenantborrant@free.fr","price_range":null,"capacity":37,"altitude":1459,"notes":null,"booking_method":"Online Portal","description":null,"booking_difficulty":null,"createdAt":"2025-09-29T16:24:47.051Z","updatedAt":"2025-10-02T18:31:16.163Z","publishedAt":"2025-10-29T08:54:28.382Z"},{"id":37,"documentId":"dh8jonll7rvd9bqceg9q79sx","name":"Refuge de Tré la Tête","type":"Refuge","location_type":"Off-trail","latitude":45.79,"longitude":6.74,"website":"https://www.trelatete.com/","phone":"+33(0)4 50 47 01 68","email":"contact@trelatete.com","price_range":"€58-71","capacity":60,"altitude":1970,"notes":null,"booking_method":"Phone","description":null,"booking_difficulty":null,"createdAt":"2025-09-29T16:23:38.931Z","updatedAt":"2025-10-03T09:01:21.118Z","publishedAt":"2025-10-29T08:54:28.382Z"},{"id":10,"documentId":"ka0d4395gecqytqtbnidhsyi","name":"Auberge de Bionnassay","type":"Refuge","location_type":"On-trail","latitude":45.87,"longitude":6.76,"website":"https://www.auberge-bionnassay.com/","phone":"+33(0)4 50 93 45 23.","email":"contact@auberge-bionnassay.com","price_range":"€35-65","capacity":45,"altitude":1320,"notes":null,"booking_method":"Phone","description":null,"booking_difficulty":null,"createdAt":"2025-09-29T15:28:13.588Z","updatedAt":"2025-10-18T18:01:19.884Z","publishedAt":"2025-10-29T08:54:28.382Z"},{"id":6,"documentId":"nhityn9u9qitu4m6rrzoka59","name":"Refuge Du Fioux","type":"Refuge","location_type":"On-trail","latitude":45.87,"longitude":6.76,"website":null,"phone":" +33 4 50 93 52 43","email":"c.botholier@gmail.com","price_range":"€60","capacity":24,"altitude":1505,"notes":null,"booking_method":"Phone","description":null,"booking_difficulty":null,"createdAt":"2025-09-29T11:59:20.173Z","updatedAt":"2025-10-18T18:02:25.677Z","publishedAt":"2025-10-29T08:54:28.382Z"},{"id":8,"documentId":"qfl8zhqmexdiepobuaaxaswp","name":"Chalets Du Champel","type":"B&B","location_type":"On-trail","latitude":45.86,"longitude":6.74,"website":"https://www.chaletsduchampel.com/","phone":"+33689993222","email":"jacquet.didier@wanadoo.fr","price_range":"€350","capacity":8,"altitude":1200,"notes":null,"booking_method":null,"description":null,"booking_difficulty":null,"createdAt":"2025-09-29T15:25:22.078Z","updatedAt":"2025-10-18T18:05:02.520Z","publishedAt":"2025-10-29T08:54:28.382Z"},{"id":14,"documentId":"aj8b7p4v5k5oby8l7kellead","name":"Refuge Miage","type":"Refuge","location_type":"Near-trail","latitude":45.84,"longitude":6.76,"website":"https://www.refugemiage.com/","phone":"04 50 93 22 91","email":"refugedemiage@orange.fr","price_range":"€70-90","capacity":null,"altitude":null,"notes":null,"booking_method":"Phone","description":null,"booking_difficulty":null,"createdAt":"2025-09-29T15:34:44.176Z","updatedAt":"2025-10-18T18:06:32.586Z","publishedAt":"2025-10-29T08:54:28.382Z"},{"id":17,"documentId":"klehoo8uhqskasck9um3ghg6","name":"Auberge du Truc","type":"Refuge","location_type":"On-trail","latitude":45.84,"longitude":6.75,"website":null,"phone":"04 50 93 12 48","email":null,"price_range":"€25-42","capacity":28,"altitude":null,"notes":null,"booking_method":"Email","description":null,"booking_difficulty":null,"createdAt":"2025-09-29T15:38:00.865Z","updatedAt":"2025-10-18T18:08:13.547Z","publishedAt":"2025-10-29T08:54:28.382Z"},{"id":19,"documentId":"qfbgo2h1s4e155kninebpvzi","name":"Hotel La Gelinotte","type":"Hotel","location_type":"Near-trail","latitude":45.83,"longitude":6.72,"website":"https://www.hotel-lagelinotte.net/","phone":"04 50 47 01 61","email":"lagelinotte@free.fr","price_range":"€80-200","capacity":28,"altitude":1164,"notes":null,"booking_method":"Email","description":null,"booking_difficulty":null,"createdAt":"2025-09-29T15:47:07.898Z","updatedAt":"2025-10-18T18:10:05.658Z","publishedAt":"2025-10-29T08:54:28.382Z"},{"id":43,"documentId":"ciyivpkk24853322ayvq27br","name":"Auberge Refuge Nova","type":"Refuge","location_type":"On-trail","latitude":45.7,"longitude":6.73,"website":"https://refugelanova.com/?lang=en","phone":"+33 (0)9 82 12 64 35","email":null,"price_range":"€68-89","capacity":28,"altitude":155505,"notes":null,"booking_method":"Online Portal","description":null,"booking_difficulty":"Hard","createdAt":"2025-09-29T16:28:02.276Z","updatedAt":"2025-10-18T21:01:52.394Z","publishedAt":"2025-10-29T08:54:28.382Z"},{"id":44,"documentId":"bcuq44ls7pbzqram1f0uoc30","name":"Les Chambres du Soleil","type":"B&B","location_type":"On-trail","latitude":45.7,"longitude":6.73,"website":"https://www.leschambresdusoleil-montblanc.com/","phone":"04 79 31 30 22","email":"lesoleildeschapieux@gmail.com","price_range":"€70-100","capacity":null,"altitude":1554,"notes":null,"booking_method":"Online Portal","description":null,"booking_difficulty":"Hard","createdAt":"2025-09-29T16:29:06.512Z","updatedAt":"2025-10-18T21:02:36.415Z","publishedAt":"2025-10-29T08:54:28.382Z"},{"id":42,"documentId":"efapclf5p7eg35o8h2tb4tf8","name":"Refuge de la Croix du Bonhomme","type":"Refuge","location_type":"On-trail","latitude":45.72,"longitude":6.72,"website":"https://refugecroixdubonhomme.ffcam.fr/","phone":"+33 9 70 02 81 47","email":null,"price_range":"€27","capacity":125,"altitude":2443,"notes":null,"booking_method":"Online Portal","description":null,"booking_difficulty":null,"createdAt":"2025-09-29T16:27:06.665Z","updatedAt":"2025-10-02T18:31:33.957Z","publishedAt":"2025-10-29T08:54:28.382Z"},{"id":55,"documentId":"rbntn0c7fy109pt83mevtouv","name":"Bivouac de la Rollaz","type":"Campsite","location_type":"On-trail","latitude":45.77,"longitude":6.72,"website":"https://bivouac.nature-haute-savoie.fr/","phone":null,"email":null,"price_range":null,"capacity":null,"altitude":null,"notes":null,"booking_method":"Online Portal","description":null,"booking_difficulty":null,"createdAt":"2025-10-02T18:37:25.586Z","updatedAt":"2025-10-02T18:37:25.586Z","publishedAt":"2025-10-29T08:54:28.382Z"},{"id":57,"documentId":"sdcuyyl2p71kpqw137y26m8z","name":"Bivouac de la Rollaz","type":"Campsite","location_type":"On-trail","latitude":45.77,"longitude":6.72,"website":"https://bivouac.nature-haute-savoie.fr/","phone":null,"email":null,"price_range":null,"capacity":null,"altitude":null,"notes":null,"booking_method":"Online Portal","description":null,"booking_difficulty":null,"createdAt":"2025-10-02T18:37:28.186Z","updatedAt":"2025-10-02T18:37:28.186Z","publishedAt":"2025-10-29T08:54:28.382Z"},{"id":62,"documentId":"iwop5w0gjy9n50ht2hmuyxhl","name":"Bivouac La Balme","type":"Campsite","location_type":"On-trail","latitude":45.76,"longitude":6.71,"website":null,"phone":null,"email":null,"price_range":null,"capacity":null,"altitude":null,"notes":null,"booking_method":null,"description":null,"booking_difficulty":null,"createdAt":"2025-10-03T09:11:31.826Z","updatedAt":"2025-10-03T09:11:31.826Z","publishedAt":"2025-10-29T08:54:28.382Z"},{"id":4,"documentId":"rf4v9m847ou79d9vo8cidlg7","name":"Les Campanules","type":"Hotel","location_type":"Near-trail","latitude":45.9,"longitude":6.8,"website":"https://www.hotel-campanules.com/en/","phone":"+ 33 (0)4 50 54 40 71","email":null,"price_range":"€130-160","capacity":43,"altitude":1000,"notes":null,"booking_method":"Online Portal","description":null,"booking_difficulty":null,"createdAt":"2025-09-29T11:55:01.389Z","updatedAt":"2025-10-18T09:15:30.591Z","publishedAt":"2025-10-29T08:54:28.382Z"},{"id":84,"documentId":"ais6dldii2nrssvlyon1c2wu","name":"Rifugio Elena","type":"Refuge","location_type":"On-trail","latitude":45.88,"longitude":7.07,"website":"http://www.rifugioelena.it/","phone":"+39 0165844688","email":"prenotazioni@rifugioelena.it","price_range":"€50-100","capacity":127,"altitude":2061,"notes":null,"booking_method":null,"description":null,"booking_difficulty":null,"createdAt":"2025-10-18T18:16:53.620Z","updatedAt":"2025-10-19T21:34:24.976Z","publishedAt":"2025-10-29T08:54:28.382Z"},{"id":88,"documentId":"tb1id18q1jletp5mva84nixl","name":"Auberge des Glaciers ","type":"Refuge","location_type":"On-trail","latitude":45.93,"longitude":7.1,"website":"https://www.aubergedesglaciers.com/","phone":"027 783 11 71","email":"info@aubergedesglaciers.ch","price_range":null,"capacity":56,"altitude":1610,"notes":null,"booking_method":"Email","description":null,"booking_difficulty":null,"createdAt":"2025-10-18T18:21:43.602Z","updatedAt":"2025-10-18T20:38:05.911Z","publishedAt":"2025-10-29T08:54:28.382Z"}],"meta":{"pagination":{"page":1,"pageSize":25,"pageCount":7,"total":162}}}